[{
    "rhyme": "function",
    "x_pos": 60,
    "y_pos": 90
  },
  {
    "rhyme": "preload",
    "x_pos": 130,
    "y_pos": 90
  },
  {
    "rhyme": "( )",
    "x_pos": 190,
    "y_pos": 89
  },
  {
    "rhyme": "{",
    "x_pos": 215,
    "y_pos": 90
  },

  {
    "rhyme": "}",
    "x_pos": 85,
    "y_pos": 160
  },
  {
    "rhyme": "thisPoemBegin",
    "x_pos": 85,
    "y_pos": 125
  },
  {
    "rhyme": "=",
    "x_pos": 220,
    "y_pos": 125
  },
  {
    "rhyme": "loadJSON",
    "x_pos": 242,
    "y_pos": 125
  },
  {
    "rhyme": "('withVersesWithin.json');",
    "x_pos": 325,
    "y_pos": 125
  }
]
